top/dump.vcd
$date
	Mon Aug 19 11:13:24 2024
$end
$version
	Icarus Verilog
$end
$timescale
	1ps
$end
$scope module top_tb $end
$var wire 1 ! SCL $end
$var wire 1 " SDA $end
$var wire 1 # TX $end
$var reg 7 $ addressToSend [6:0] $end
$var reg 1 % clk $end
$var reg 8 & dataToSend1 [7:0] $end
$var reg 8 ' dataToSend2 [7:0] $end
$var reg 2 ( dataToSend3 [7:8] $end
$var reg 1 ) readWite $end
$var reg 1 * rst $end
$var integer 32 + ii [31:0] $end
$scope module UUT $end
$var wire 1 ! SCL $end
$var wire 1 " SDA $end
$var wire 1 , en_read $end
$var wire 1 * reset $end
$var wire 1 - underflow $end
$var wire 8 . uart_buff [7:0] $end
$var wire 1 / o_Tx_Done $end
$var wire 1 0 o_Tx_Active $end
$var wire 8 1 i2c_buffer [7:0] $end
$var wire 1 2 en_write $end
$var wire 1 # TX $end
$var reg 1 3 uart_en $end
$scope module fifo $end
$var wire 1 ! clk $end
$var wire 1 , en_read $end
$var wire 1 * reset $end
$var wire 1 4 overflow $end
$var wire 8 5 i_data [7:0] $end
$var wire 1 2 en_write $end
$var parameter 32 6 Size $end
$var parameter 33 7 Size1 $end
$var parameter 32 8 count $end
$var reg 8 9 o_data [7:0] $end
$var reg 5 : ptr_wr [4:0] $end
$var reg 1 - underflow $end
$var integer 32 ; i [31:0] $end
$upscope $end
$scope module i2c $end
$var wire 1 * RST $end
$var wire 1 ! SCL $end
$var wire 1 " SDA $end
$var wire 1 2 ack_bit $end
$var wire 1 < read_write_bit $end
$var wire 1 = start_rst $end
$var wire 1 > stop_rst $end
$var wire 8 ? out_buffer [7:0] $end
$var wire 8 @ out [7:0] $end
$var wire 1 A address_detect $end
$var wire 7 B addr_buffer [6:0] $end
$var parameter 2 C STATE_DEV_ADDR $end
$var parameter 2 D STATE_IDLE $end
$var parameter 2 E STATE_READ $end
$var parameter 2 F STATE_WRITE $end
$var parameter 7 G device_address $end
$var reg 1 H addr_act_bit $end
$var reg 4 I bit_counter [3:0] $end
$var reg 9 J buffer [8:0] $end
$var reg 1 K start_detect $end
$var reg 1 L start_resetter $end
$var reg 3 M state [2:0] $end
$var reg 1 N stop_detect $end
$var reg 1 O stop_resetter $end
$upscope $end
$scope module uart $end
$var wire 1 ! i_Clock $end
$var wire 8 P i_Tx_Byte [7:0] $end
$var wire 1 3 i_Tx_DV $end
$var wire 1 / o_Tx_Done $end
$var wire 1 0 o_Tx_Active $end
$var parameter 32 Q CLKS_PER_BIT $end
$var parameter 3 R s_CLEANUP $end
$var parameter 3 S s_IDLE $end
$var parameter 3 T s_TX_DATA_BITS $end
$var parameter 3 U s_TX_START_BIT $end
$var parameter 3 V s_TX_STOP_BIT $end
$var reg 1 # o_Tx_Serial $end
$var reg 3 W r_Bit_Index [2:0] $end
$var reg 8 X r_Clock_Count [7:0] $end
$var reg 3 Y r_SM_Main [2:0] $end
$var reg 1 0 r_Tx_Active $end
$var reg 8 Z r_Tx_Data [7:0] $end
$var reg 1 / r_Tx_Done $end
$upscope $end
$upscope $end
$upscope $end
$enddefinitions $end
$comment Show the parameter values. $end
$dumpall
b11 V
b1 U
b10 T
b0 S
b100 R
b10 Q
b1000111 G
b11 F
b10 E
b0 D
b1 C
b1 8
b1111 7
b10000 6
$end
#0
$dumpvars
b0 Z
b0 Y
b0 X
b0 W
b0 P
0O
0N
b0 M
0L
0K
bx J
bx I
xH
bx B
xA
bx @
bx ?
1>
1=
1<
b10000 ;
b1111 :
b0 9
bx 5
04
x3
x2
bx 1
00
0/
b0 .
x-
x,
b111 +
1*
0)
b10 (
b10100 '
b1100111 &
1%
b1000111 $
x#
1"
1!
$end
#5000
0=
0>
0*
#10000
0,
b0 1
b0 5
b0 @
02
1K
0<
0"
#15000
b1 M
0!
0%
#20000
1<
1"
b110 +
#25000
0K
1=
bx1 B
bx1 ?
1L
b0 I
bx1 J
1-
1#
0H
1!
1%
#35000
0!
0%
#40000
0<
0"
b101 +
#45000
0=
0A
bx10 B
bx10 ?
0L
03
bx10 J
b1 I
1!
1%
#55000
0!
0%
#60000
0"
b100 +
#65000
bx100 B
bx100 ?
b10 I
bx100 J
1!
1%
#75000
0!
0%
#80000
0"
b11 +
#85000
bx1000 B
bx1000 ?
bx1000 J
b11 I
1!
1%
#95000
0!
0%
#100000
1<
1"
b10 +
#105000
bx10001 B
bx10001 ?
b100 I
bx10001 J
1!
1%
#115000
0!
0%
#120000
1"
b1 +
#125000
bx100011 B
bx100011 ?
bx100011 J
b101 I
1!
1%
#135000
0!
0%
#140000
1"
b0 +
#145000
1A
b1000111 B
bx1000111 ?
b0 I
bx1000111 J
1H
1!
1%
#155000
b10 M
0!
0%
#160000
0<
0"
b11111111111111111111111111111111 +
#165000
0A
b1110 B
b10001110 ?
bx10001110 J
0H
1!
1%
#175000
0!
0%
#180000
b111 +
0"
#185000
b11100 B
b11100 ?
b1 I
b100011100 J
1!
1%
#195000
0!
0%
#200000
b110 +
0"
#205000
b111000 B
b111000 ?
b111000 J
b10 I
1!
1%
#215000
0!
0%
#220000
b101 +
1<
1"
#225000
b1110001 B
b1110001 ?
b11 I
b1110001 J
1!
1%
#235000
0!
0%
#240000
b100 +
1"
#245000
b1100011 B
b11100011 ?
b11100011 J
b100 I
1!
1%
#255000
0!
0%
#260000
b11 +
0<
0"
#265000
b1000110 B
b11000110 ?
b101 I
b111000110 J
1!
1%
#275000
0!
0%
#280000
b10 +
0"
#285000
b1100 B
b10001100 ?
b110001100 J
b110 I
1!
1%
#295000
0!
0%
#300000
b1 +
1<
1"
#305000
b11001 B
b11001 ?
b111 I
b100011001 J
1!
1%
#315000
0!
0%
#320000
b0 +
1"
#325000
b110011 B
b110011 ?
b110011 J
b1000 I
1!
1%
#335000
0!
0%
#340000
b11111111111111111111111111111111 +
1"
#345000
1,
b1100111 1
b1100111 5
b1100111 @
12
b1100111 B
b1100111 ?
b1001 I
b1100111 J
1!
1%
#355000
0!
0%
#360000
b111 +
0<
0"
#365000
0,
b0 1
b0 5
b0 @
02
b1100111 .
b1100111 9
b1100111 P
0-
b0 I
1!
1%
#375000
0!
0%
#380000
b110 +
0"
#385000
b1001110 B
b11001110 ?
b1 I
b11001110 J
1-
13
1!
1%
#395000
0!
0%
#400000
b101 +
0"
#405000
b11100 B
b10011100 ?
03
b1 Y
b1100111 Z
10
b110011100 J
b10 I
1!
1%
#415000
0!
0%
#420000
b100 +
0"
#425000
b111000 B
b111000 ?
b11 I
b100111000 J
b1 X
0#
1!
1%
#435000
0!
0%
#440000
b11 +
1<
1"
#445000
b1110001 B
b1110001 ?
b10 Y
b0 X
b1110001 J
b100 I
1!
1%
#455000
0!
0%
#460000
b10 +
0<
0"
#465000
b1100010 B
b11100010 ?
b101 I
b11100010 J
b1 X
1#
1!
1%
#475000
0!
0%
#480000
b1 +
1<
1"
#485000
b1000101 B
b11000101 ?
b1 W
b0 X
b111000101 J
b110 I
1!
1%
#495000
0!
0%
#500000
b0 +
0<
0"
#505000
b1010 B
b10001010 ?
b111 I
b110001010 J
b1 X
1!
1%
#515000
0!
0%
#520000
b11111111111111111111111111111111 +
0"
#525000
b10100 B
b10100 ?
b10 W
b0 X
b100010100 J
b1000 I
1!
1%
#535000
0!
0%
#540000
b111 +
0"
#545000
b101000 1
b101000 5
b101000 @
12
b101000 B
b101000 ?
b1001 I
b101000 J
b1 X
1!
1%
#555000
0!
0%
#560000
b110 +
1<
1"
#565000
b0 1
b0 5
b0 @
02
b1110 :
b11 W
b0 X
b0 I
1!
1%
#575000
0!
0%
#580000
b101 +
x<
x"
#585000
b101000x B
b101000x ?
b1 I
b101000x J
0-
b1 X
0#
1!
1%
#595000
0!
0%
#600000
b100 +
x"
#605000
b1000xx B
b101000xx ?
13
b100 W
b0 X
b101000xx J
b10 I
1!
1%
#615000
0!
0%
#620000
b11 +
x"
#625000
xA
b1000xxx B
b1000xxx ?
b11 I
b101000xxx J
b1 X
1!
1%
#635000
0!
0%
#640000
b10 +
x"
#645000
0A
b0xxxx B
b1000xxxx ?
b101 W
b0 X
b1000xxxx J
b100 I
1!
1%
#655000
0!
0%
#660000
b1 +
x"
#665000
b0xxxxx B
b0xxxxx ?
b101 I
b1000xxxxx J
b1 X
1#
1!
1%
#675000
0!
0%
#680000
b0 +
x"
#685000
b0xxxxxx B
b0xxxxxx ?
b110 W
b0 X
b0xxxxxx J
b110 I
1!
1%
#695000
0!
0%
#700000
b11111111111111111111111111111111 +
x"
#705000
xA
bx B
b0xxxxxxx ?
b111 I
b0xxxxxxx J
b1 X
1!
1%
#715000
0!
0%
#720000
0<
0"
#725000
0A
bx0 B
bx0 ?
b111 W
b0 X
b0xxxxxxx0 J
b1000 I
1!
1%
#735000
0!
0%
#745000
bx00 1
bx00 5
bx00 @
12
bx00 B
bx00 ?
b1001 I
bx00 J
b1 X
0#
1!
1%
#750000
1N
1<
1"
#755000
b0 M
0!
0%
#765000
0N
b0 1
b0 5
b0 @
1>
02
1O
b1101 :
b11 Y
b0 W
b0 X
b0 I
1!
1%
#775000
0!
0%
#785000
0>
bx001 B
bx001 ?
0O
bx001 J
b1 X
1#
1!
1%
#795000
0!
0%
#805000
1,
bx0011 B
bx0011 ?
00
b100 Y
b0 X
1/
bx0011 J
1!
1%
#815000
0!
0%
#825000
0,
xA
bx00111 B
bx00111 ?
b1110 :
b101000 .
b101000 9
b101000 P
bx00111 J
b0 Y
0/
b0 ;
1!
1%
#835000
0!
0%
#845000
0A
bx001111 B
bx001111 ?
b1 Y
b101000 Z
10
bx001111 J
1!
1%
#855000
0!
0%
#865000
b11111 B
bx0011111 ?
bx0011111 J
b1 X
0#
1!
1%
#875000
0!
0%
#885000
b111111 B
b111111 ?
b10 Y
b0 X
bx00111111 J
1!
1%
#895000
0!
0%
#905000
b1111111 B
b1111111 ?
b1111111 J
b1 X
1!
1%
#915000
0!
0%
#925000
b11111111 ?
b1 W
b0 X
b11111111 J
1!
1%
#935000
0!
0%
#945000
b111111111 J
b1 X
1!
1%
#955000
0!
0%
#965000
b10 W
b0 X
1!
1%
#975000
0!
0%
#985000
b1 X
1!
1%
#995000
0!
0%
#1005000
b11 W
b0 X
1!
1%
#1015000
0!
0%
#1025000
b1 X
1#
1!
1%
#1035000
0!
0%
#1045000
b100 W
b0 X
1!
1%
#1055000
0!
0%
#1065000
b1 X
0#
1!
1%
#1075000
0!
0%
#1085000
b101 W
b0 X
1!
1%
#1095000
0!
0%
#1105000
b1 X
1#
1!
1%
#1115000
0!
0%
#1125000
b110 W
b0 X
1!
1%
#1135000
0!
0%
#1145000
b1 X
0#
1!
1%
#1155000
0!
0%
#1165000
b111 W
b0 X
1!
1%
#1175000
0!
0%
#1185000
b1 X
1!
1%
#1195000
0!
0%
#1205000
b11 Y
b0 W
b0 X
1!
1%
#1215000
0!
0%
#1225000
b1 X
1#
1!
1%
#1235000
0!
0%
#1245000
1,
00
b100 Y
b0 X
1/
1!
1%
#1255000
0!
0%
#1265000
0,
b1111 :
bx00 .
bx00 9
bx00 P
b0 Y
0/
b0 ;
1!
1%
#1275000
0!
0%
#1285000
b1 Y
bx00 Z
10
1-
1!
1%
#1295000
0!
0%
#1305000
b1 X
0#
03
1!
1%
#1315000
0!
0%
#1325000
b10 Y
b0 X
1!
1%
#1335000
0!
0%
#1345000
b1 X
1!
1%
#1355000
0!
0%
#1365000
b1 W
b0 X
1!
1%
#1375000
0!
0%
#1385000
b1 X
1!
1%
#1395000
0!
0%
#1405000
b10 W
b0 X
1!
1%
#1415000
0!
0%
#1425000
b1 X
x#
1!
1%
#1435000
0!
0%
#1445000
b11 W
b0 X
1!
1%
#1455000
0!
0%
#1465000
b1 X
1!
1%
#1475000
0!
0%
#1485000
b100 W
b0 X
1!
1%
#1495000
0!
0%
#1505000
b1 X
1!
1%
#1515000
0!
0%
#1525000
b101 W
b0 X
1!
1%
#1535000
0!
0%
#1545000
b1 X
1!
1%
#1555000
0!
0%
#1565000
b110 W
b0 X
1!
1%
#1575000
0!
0%
#1585000
b1 X
1!
1%
#1595000
0!
0%
#1605000
b111 W
b0 X
1!
1%
#1615000
0!
0%
#1625000
b1 X
1!
1%
#1635000
0!
0%
#1645000
b11 Y
b0 W
b0 X
1!
1%
#1655000
0!
0%
#1665000
b1 X
1#
1!
1%
#1675000
0!
0%
#1685000
1,
00
b100 Y
b0 X
1/
1!
1%
#1695000
0!
0%
#1705000
0,
b0 Y
0/
1!
1%
